<?xml version="1.0" encoding="utf-8"?>
<!-- Generator: Adobe Illustrator 16.0.0, SVG Export Plug-In . SVG Version: 6.00 Build 0)  -->
<!DOCTYPE svg PUBLIC "-//W3C//DTD SVG 1.1//EN" "http://www.w3.org/Graphics/SVG/1.1/DTD/svg11.dtd">
<svg version="1.1" xmlns="http://www.w3.org/2000/svg" xmlns:xlink="http://www.w3.org/1999/xlink" x="0px" y="0px"
	 width="47.431px" height="56.25px" viewBox="0 0 47.431 56.25" enable-background="new 0 0 47.431 56.25" xml:space="preserve">
<g id="Layer_1">
</g>
<g id="Mouse_Up_Arrow_designed_by_Plainicon_from_Flaticon.com">
</g>
<g id="Add_Song_designed_by_Egor_Rumyantsev_from_Flaticon.com">
</g>
<g id="Access_denied_designed_by_Elegant_Themes_from_Flaticon.com">
</g>
<g id="Favorite_heart_button_designed_by_Google_from_Flaticon.com">
</g>
<g id="Favorite_heart_button_designed_by_Google_from_Flaticon.com_1_">
</g>
<g id="Favorite_heart_button_designed_by_Google_from_Flaticon.com_2_">
	<g id="cacacaca">
	</g>
</g>
<g id="Right_black_arrow_designed_by_Designerz_Base_from_Flaticon.com">
</g>
<g id="Right_Arrow_designed_by_Amit_Jakhu_from_Flaticon.com">
</g>
<g id="Amazon_logotype_designed_by_Freepik_from_Flaticon.com">
</g>
<g id="Magnifying_Glass_Browser_designed_by_Anton_Saputro_from_Flaticon.com">
</g>
<g id="Add_Song_designed_by_Egor_Rumyantsev_from_Flaticon.com_1_">
	<path fill="#FFF799" d="M42.718,0H4.713C2.121,0,0,2.121,0,4.713v46.823c0,2.593,2.121,4.713,4.713,4.713h38.005
		c2.592,0,4.713-2.121,4.713-4.713V4.713C47.431,2.121,45.31,0,42.718,0z M35.535,28.537H25.404v10.131
		c0,0.933-0.756,1.688-1.688,1.688s-1.688-0.756-1.688-1.688V28.537H11.896c-0.932,0-1.688-0.756-1.688-1.688
		s0.757-1.688,1.688-1.688h10.131V15.029c0-0.933,0.756-1.688,1.688-1.688s1.688,0.756,1.688,1.688V25.16h10.131
		c0.933,0,1.688,0.756,1.688,1.688S36.468,28.537,35.535,28.537z"/>
	
		<rect x="-126.972" y="-108.057" fill="none" stroke="#FFFFFF" stroke-width="10" stroke-miterlimit="10" width="1524" height="694"/>
</g>
</svg>
