<?xml version="1.0" encoding="utf-8"?>
<!-- Generator: Adobe Illustrator 16.0.0, SVG Export Plug-In . SVG Version: 6.00 Build 0)  -->
<!DOCTYPE svg PUBLIC "-//W3C//DTD SVG 1.1//EN" "http://www.w3.org/Graphics/SVG/1.1/DTD/svg11.dtd">
<svg version="1.1" xmlns="http://www.w3.org/2000/svg" xmlns:xlink="http://www.w3.org/1999/xlink" x="0px" y="0px"
	 width="38.618px" height="36.857px" viewBox="0 0 38.618 36.857" enable-background="new 0 0 38.618 36.857" xml:space="preserve">
<g id="Layer_1">
</g>
<g id="Mouse_Up_Arrow_designed_by_Plainicon_from_Flaticon.com">
</g>
<g id="Add_Song_designed_by_Egor_Rumyantsev_from_Flaticon.com">
</g>
<g id="Access_denied_designed_by_Elegant_Themes_from_Flaticon.com">
</g>
<g id="Favorite_heart_button_designed_by_Google_from_Flaticon.com">
</g>
<g id="Favorite_heart_button_designed_by_Google_from_Flaticon.com_1_">
</g>
<g id="Favorite_heart_button_designed_by_Google_from_Flaticon.com_2_">
	<g id="cacacaca">
	</g>
</g>
<g id="Right_black_arrow_designed_by_Designerz_Base_from_Flaticon.com">
</g>
<g id="Right_Arrow_designed_by_Amit_Jakhu_from_Flaticon.com">
</g>
<g id="Amazon_logotype_designed_by_Freepik_from_Flaticon.com">
</g>
<g id="Magnifying_Glass_Browser_designed_by_Anton_Saputro_from_Flaticon.com">
</g>
<g id="Add_Song_designed_by_Egor_Rumyantsev_from_Flaticon.com_1_">
	<g>
		<path fill="#D31920" d="M28.563,0c-3.108,0-6.218,1.462-8.229,3.839C18.322,1.462,15.214,0,12.106,0
			C6.438,0,2.05,4.388,2.05,10.056c0,4.187,2.27,7.912,6.145,12.05c0.565-0.459,1.221-0.806,1.92-0.992
			c2.646-0.701,5.237,0.804,5.937,3.45c0.381,1.437,0.159,2.908-0.499,4.544c0.721,0.644,1.457,1.298,2.223,1.975l2.56,2.56
			l2.561-2.56c9.507-8.411,15.724-14.08,15.724-21.027C38.618,4.388,34.23,0,28.563,0z"/>
		<g>
			<g id="favorite_2_">
				<path fill="#D31920" d="M10.177,36.857l-1.322-0.77c-4.797-2.407-7.951-4.05-8.704-6.889C-0.464,26.882,0.854,24.614,3.171,24
					c1.271-0.336,2.7-0.077,3.779,0.678c0.563-1.189,1.676-2.124,2.945-2.46c2.316-0.614,4.586,0.704,5.198,3.021
					c0.753,2.838-1.173,5.828-4.148,10.295L10.177,36.857z"/>
			</g>
		</g>
	</g>
	
		<rect x="-252.24" y="-120.825" fill="none" stroke="#FFFFFF" stroke-width="10" stroke-miterlimit="10" width="1524" height="694"/>
</g>
</svg>
