<?xml version="1.0" encoding="utf-8"?>
<!-- Generator: Adobe Illustrator 16.0.0, SVG Export Plug-In . SVG Version: 6.00 Build 0)  -->
<!DOCTYPE svg PUBLIC "-//W3C//DTD SVG 1.1//EN" "http://www.w3.org/Graphics/SVG/1.1/DTD/svg11.dtd">
<svg version="1.1" xmlns="http://www.w3.org/2000/svg" xmlns:xlink="http://www.w3.org/1999/xlink" x="0px" y="0px"
	 width="13.574px" height="23.468px" viewBox="0 0 13.574 23.468" enable-background="new 0 0 13.574 23.468" xml:space="preserve">
<g id="Layer_1">
	<g>
		<g>
			<path fill="#FFFFFF" d="M13.054,10.488L3.161,0.595C2.789,0.224,2.27,0,1.822,0S0.93,0.224,0.559,0.595
				c-0.745,0.743-0.745,1.787,0,2.53l8.627,8.628l-8.627,8.628c-0.745,0.743-0.745,1.785,0,2.528c0.742,0.745,1.857,0.745,2.603,0
				l9.893-9.892c0.372-0.373,0.521-0.819,0.521-1.264C13.574,11.231,13.426,10.86,13.054,10.488z"/>
		</g>
	</g>
</g>
<g id="Mouse_Up_Arrow_designed_by_Plainicon_from_Flaticon.com">
</g>
<g id="Add_Song_designed_by_Egor_Rumyantsev_from_Flaticon.com">
</g>
<g id="Access_denied_designed_by_Elegant_Themes_from_Flaticon.com">
</g>
<g id="Favorite_heart_button_designed_by_Google_from_Flaticon.com">
</g>
<g id="Favorite_heart_button_designed_by_Google_from_Flaticon.com_1_">
</g>
<g id="Favorite_heart_button_designed_by_Google_from_Flaticon.com_2_">
	<g id="cacacaca">
	</g>
</g>
<g id="Right_black_arrow_designed_by_Designerz_Base_from_Flaticon.com">
</g>
<g id="Right_Arrow_designed_by_Amit_Jakhu_from_Flaticon.com">
</g>
<g id="Amazon_logotype_designed_by_Freepik_from_Flaticon.com">
</g>
<g id="Magnifying_Glass_Browser_designed_by_Anton_Saputro_from_Flaticon.com">
</g>
<g id="Add_Song_designed_by_Egor_Rumyantsev_from_Flaticon.com_1_">
	
		<rect x="-388.357" y="-124.448" fill="none" stroke="#FFFFFF" stroke-width="10" stroke-miterlimit="10" width="1524" height="694"/>
</g>
</svg>
